(module inductance_murata_1200LRS (layer F.Cu) (tedit 5BB5D9C6)
  (fp_text reference L1 (at -0.032 -6.564) (layer F.SilkS)
    (effects (font (size 1 1) (thickness 0.15)))
  )
  (fp_text value 47u (at 0 -7.62) (layer F.Fab)
    (effects (font (size 1 1) (thickness 0.15)))
  )
  (fp_circle (center 0 0) (end -5.25 0.25) (layer F.SilkS) (width 0.15))
  (fp_circle (center 0 0) (end -5.5 0.75) (layer F.CrtYd) (width 0.15))
  (pad 4 thru_hole circle (at 2 -2.5) (size 2.4 2.4) (drill 1.5) (layers *.Cu *.Mask F.SilkS))
  (pad 3 thru_hole circle (at 2 2.5) (size 2.4 2.4) (drill 1.5) (layers *.Cu *.Mask F.SilkS))
  (pad 2 thru_hole circle (at -2 2.5) (size 2.4 2.4) (drill 1.5) (layers *.Cu *.Mask F.SilkS))
  (pad 1 thru_hole circle (at -2 -2.5) (size 2.4 2.4) (drill 1.5) (layers *.Cu *.Mask F.SilkS))
)
