EESchema Schematic File Version 4
EELAYER 30 0
EELAYER END
$Descr A4 11693 8268
encoding utf-8
Sheet 6 6
Title ""
Date "2020-02-21"
Rev "2.1.1"
Comp ""
Comment1 ""
Comment2 ""
Comment3 ""
Comment4 ""
$EndDescr
Wire Wire Line
	4000 3950 5425 3950
Wire Wire Line
	4000 4050 5425 4050
Wire Wire Line
	5425 4350 4875 4350
Wire Wire Line
	5925 4775 6075 4775
Wire Wire Line
	6225 4775 6225 4650
Wire Wire Line
	5925 4650 5925 4775
Wire Wire Line
	6075 4775 6075 4825
Connection ~ 6075 4775
Wire Wire Line
	6075 4775 6225 4775
$Comp
L power:GND #PWR?
U 1 1 5BB8ADFB
P 6075 4825
AR Path="/5BB8ADFB" Ref="#PWR?"  Part="1" 
AR Path="/5BB8AB57/5BB8ADFB" Ref="#PWR085"  Part="1" 
F 0 "#PWR?" H 6075 4575 50  0001 C CNN
F 1 "GND" H 6080 4652 50  0000 C CNN
F 2 "" H 6075 4825 50  0001 C CNN
F 3 "" H 6075 4825 50  0001 C CNN
	1    6075 4825
	1    0    0    -1  
$EndComp
$Comp
L power:+5V #PWR?
U 1 1 5BB8AE01
P 6225 2350
AR Path="/5BB8AE01" Ref="#PWR?"  Part="1" 
AR Path="/5BB8AB57/5BB8AE01" Ref="#PWR086"  Part="1" 
F 0 "#PWR?" H 6225 2200 50  0001 C CNN
F 1 "+5V" H 6240 2523 50  0000 C CNN
F 2 "" H 6225 2350 50  0001 C CNN
F 3 "" H 6225 2350 50  0001 C CNN
	1    6225 2350
	1    0    0    -1  
$EndComp
Wire Wire Line
	6625 4050 7175 4050
Wire Wire Line
	6625 4250 6975 4250
Wire Wire Line
	6625 3950 6875 3950
Text Notes 5175 1450 0    60   ~ 0
convertisseur analogique numerique\n
$Comp
L Device:C C?
U 1 1 5BB8AE10
P 6650 2900
AR Path="/5BB8AE10" Ref="C?"  Part="1" 
AR Path="/5BB8AB57/5BB8AE10" Ref="C16"  Part="1" 
F 0 "C?" H 6765 2946 50  0000 L CNN
F 1 "100nf" H 6765 2855 50  0000 L CNN
F 2 "windlog:C_Rect_L7.0mm_W2.5mm_P5.00mm" H 6688 2750 50  0001 C CNN
F 3 "~" H 6650 2900 50  0001 C CNN
	1    6650 2900
	1    0    0    -1  
$EndComp
$Comp
L power:GND #PWR?
U 1 1 5BB8AE1A
P 6650 3175
AR Path="/5BB8AE1A" Ref="#PWR?"  Part="1" 
AR Path="/5BB8AB57/5BB8AE1A" Ref="#PWR087"  Part="1" 
F 0 "#PWR?" H 6650 2925 50  0001 C CNN
F 1 "GND" H 6655 3002 50  0000 C CNN
F 2 "" H 6650 3175 50  0001 C CNN
F 3 "" H 6650 3175 50  0001 C CNN
	1    6650 3175
	1    0    0    -1  
$EndComp
Wire Wire Line
	2650 5150 2650 5250
$Comp
L power:GND #PWR?
U 1 1 5BB8AE2D
P 2650 5250
AR Path="/5BB8AE2D" Ref="#PWR?"  Part="1" 
AR Path="/5BB8AB57/5BB8AE2D" Ref="#PWR084"  Part="1" 
F 0 "#PWR?" H 2650 5000 50  0001 C CNN
F 1 "GND" H 2655 5077 50  0000 C CNN
F 2 "" H 2650 5250 50  0001 C CNN
F 3 "" H 2650 5250 50  0001 C CNN
	1    2650 5250
	1    0    0    -1  
$EndComp
$Comp
L power:+5V #PWR?
U 1 1 5BB8AE35
P 2650 4175
AR Path="/5BB8AE35" Ref="#PWR?"  Part="1" 
AR Path="/5BB8AB57/5BB8AE35" Ref="#PWR083"  Part="1" 
F 0 "#PWR?" H 2650 4025 50  0001 C CNN
F 1 "+5V" H 2665 4348 50  0000 C CNN
F 2 "" H 2650 4175 50  0001 C CNN
F 3 "" H 2650 4175 50  0001 C CNN
	1    2650 4175
	1    0    0    -1  
$EndComp
$Comp
L Device:R R?
U 1 1 5BB8AE3B
P 2650 4425
AR Path="/5BB8AE3B" Ref="R?"  Part="1" 
AR Path="/5BB8AB57/5BB8AE3B" Ref="R35"  Part="1" 
F 0 "R?" H 2720 4471 50  0000 L CNN
F 1 "1k" H 2720 4380 50  0000 L CNN
F 2 "windlog:R_Axial_DIN0207_L6.3mm_D2.5mm_P10.16mm_Horizontal" V 2580 4425 50  0001 C CNN
F 3 "~" H 2650 4425 50  0001 C CNN
	1    2650 4425
	1    0    0    -1  
$EndComp
Wire Wire Line
	2650 4275 2650 4175
Text HLabel 3400 3625 0    60   Input ~ 0
I1
Text HLabel 3400 3875 0    60   Input ~ 0
I2
Text HLabel 3400 4100 0    60   Input ~ 0
I3
Text HLabel 3400 4325 0    60   Input ~ 0
I4
Text HLabel 3400 5250 0    60   Input ~ 0
Udir
Text HLabel 3400 5525 0    60   Input ~ 0
Udc
Text HLabel 3400 3425 0    60   Input ~ 0
Uac
Text HLabel 7750 3550 2    60   Input ~ 0
clk
Text HLabel 7775 3850 2    60   Output ~ 0
MISO
Text HLabel 7750 4150 2    60   Input ~ 0
MOSI
Text HLabel 7775 4425 2    60   BiDi ~ 0
CS_SS
Wire Wire Line
	4500 3750 5425 3750
Wire Wire Line
	4225 3850 4225 3625
Wire Wire Line
	4225 3850 5425 3850
Wire Wire Line
	4000 3950 4000 3875
Wire Wire Line
	4000 4050 4000 4100
Wire Wire Line
	4225 4150 4225 4325
Wire Wire Line
	4225 4150 5425 4150
Wire Wire Line
	4975 4450 4975 5525
Wire Wire Line
	4975 4450 5425 4450
Wire Wire Line
	3400 5250 4875 5250
Wire Wire Line
	4875 5250 4875 4350
Wire Wire Line
	3400 3425 4500 3425
Wire Wire Line
	4500 3425 4500 3750
Wire Wire Line
	7775 3850 7175 3850
Wire Wire Line
	7175 3850 7175 4050
Wire Wire Line
	6875 3950 6875 3550
Wire Wire Line
	7775 4425 6975 4425
Wire Wire Line
	6975 4425 6975 4250
Wire Wire Line
	6225 2350 6225 2625
Wire Wire Line
	6225 2625 6650 2625
Wire Wire Line
	6650 2625 6650 2750
Connection ~ 6225 2625
Wire Wire Line
	6225 2625 6225 3550
Wire Wire Line
	6650 3050 6650 3175
$Comp
L Reference_Voltage:LM285Z-2.5 D?
U 1 1 5BB8AE23
P 2650 5000
AR Path="/5BB8AE23" Ref="D?"  Part="1" 
AR Path="/5BB8AB57/5BB8AE23" Ref="D19"  Part="1" 
F 0 "D?" V 2696 4912 50  0000 R CNN
F 1 "LM285Z-2.5" V 2575 5650 50  0000 R CNN
F 2 "Package_TO_SOT_THT:TO-92L_HandSolder" H 2650 4800 50  0001 C CIN
F 3 "http://www.onsemi.com/pub_link/Collateral/LM285-D.PDF" H 2650 5000 50  0001 C CIN
	1    2650 5000
	0    -1   -1   0   
$EndComp
Wire Wire Line
	5925 2625 6225 2625
Wire Wire Line
	5925 2625 5925 3550
Wire Wire Line
	4675 4700 4675 4250
Wire Wire Line
	4675 4250 5425 4250
Text Notes 3300 4700 0    60   ~ 0
etalon pour software\n
Wire Wire Line
	2650 4575 2650 4700
Wire Wire Line
	4000 3875 3400 3875
Wire Wire Line
	4000 4100 3400 4100
Wire Wire Line
	4225 3625 3400 3625
Wire Wire Line
	4225 4325 3400 4325
Wire Wire Line
	4975 5525 3400 5525
Wire Wire Line
	4675 4700 2650 4700
Connection ~ 2650 4700
Wire Wire Line
	2650 4700 2650 4850
Wire Wire Line
	6875 3550 7750 3550
$Comp
L Analog_ADC:MCP3208 U?
U 1 1 5BB8ADED
P 6025 4050
AR Path="/5BB8ADED" Ref="U?"  Part="1" 
AR Path="/5BB8AB57/5BB8ADED" Ref="U4"  Part="1" 
F 0 "U?" H 5575 5075 50  0000 C CNN
F 1 "MCP3208" H 5575 5000 50  0000 C CNN
F 2 "Package_DIP:DIP-16_W7.62mm_LongPads" H 6125 4150 50  0001 C CNN
F 3 "http://ww1.microchip.com/downloads/en/DeviceDoc/21298c.pdf" H 6125 4150 50  0001 C CNN
	1    6025 4050
	1    0    0    -1  
$EndComp
Wire Wire Line
	7750 4150 6625 4150
$EndSCHEMATC
